[
{
  "directory": "/home/jaffee/proj/miband/build",
  "command": "/usr/bin/c++ -I/home/jaffee/proj/miband/include -std=gnu++1z -o CMakeFiles/mibandpulse.dir/src/main.cpp.o -c /home/jaffee/proj/miband/src/main.cpp",
  "file": "/home/jaffee/proj/miband/src/main.cpp"
}
]
