connect C8:0F:10:3B:14:64
[                 ][LE]> connect C8:0F:10:3B:14:64
Attempting to connect to C8:0F:10:3B:14:64
[C8:0F:10:3B:14:64][LE]> [KConnection successful
[0;94m[C8:0F:10:3B:14:64][0m[LE]> char-read-hnd 0x002c
char-read-hnd 0x002c
[0;94m[C8:0F:10:3B:14:64][0m[LE]> [KCharacteristic value/descriptor: 63 11 0b 01 13 1b 2f 0b 00 04 
[0;94m[C8:0F:10:3B:14:64][0m[LE]> char-write-cmd 0x0051 01
char-write-req 0x004c 0100
char-write-cmd 0x0051 01
[0;94m[C8:0F:10:3B:14:64][0m[LE]> char-write-req 0x004c 0100
[0;94m[C8:0F:10:3B:14:64][0m[LE]> [KCharacteristic value was written successfully
[0;94m[C8:0F:10:3B:14:64][0m[LE]> char-write-req 0x0019 F8663A5F0126B45500040049676F7200000000DC
char-write-req 0x0019 F8663A5F0126B455000400449676F7200000000DC
[0;94m[C8:0F:10:3B:14:64][0m[LE]> [KCharacteristic value was written successfully
[0;94m[C8:0F:10:3B:14:64][0m[LE]> char-write-req 0x004e 150201
char-write-req 0x004e 150201
[0;94m[C8:0F:10:3B:14:64][0m[LE]> [KCharacteristic value was written successfully
[0;94m[C8:0F:10:3B:14:64][0m[LE]> 
(gatttool:3165): GLib-[1;33mWARNING[0m **: Invalid file descriptor.

